{
    "export_settings": {
        "rates": {
            "audio": [
                44100
            ],
            "video": [
                "24"
            ]
        },
        "shapes": [
            [
                480,
                480
            ]
        ],
        "stem": "cutcutcodec_project",
        "suffix": ""
    },
    "graph": {
        "edges": [
            [
                "filter_add_1",
                "container_output_1",
                "0->0"
            ],
            [
                "filter_delay_2",
                "filter_add_1",
                "0->1"
            ],
            [
                "filter_subclip_1",
                "filter_add_1",
                "0->0"
            ],
            [
                "filter_subclip_2",
                "filter_delay_2",
                "0->0"
            ],
            [
                "filter_subclip_3",
                "filter_add_1",
                "0->2"
            ],
            [
                "filter_video_equation_1",
                "filter_subclip_1",
                "0->0"
            ],
            [
                "filter_video_equation_2",
                "filter_subclip_2",
                "0->0"
            ],
            [
                "generator_video_equation_1",
                "filter_subclip_3",
                "0->0"
            ],
            [
                "generator_video_equation_2",
                "filter_video_equation_2",
                "0->0"
            ],
            [
                "generator_video_noise_1",
                "filter_video_equation_1",
                "0->0"
            ]
        ],
        "nodes": {
            "container_output_1": {
                "class": "classes.container.ContainerOutput",
                "display": {
                    "position": [
                        1200.0,
                        9.599999999999962
                    ]
                },
                "state": {}
            },
            "filter_add_1": {
                "class": "filter.video.add.FilterVideoAdd",
                "display": {
                    "position": [
                        960.0,
                        -120.0
                    ]
                },
                "state": {}
            },
            "filter_delay_2": {
                "class": "filter.video.delay.FilterVideoDelay",
                "display": {
                    "position": [
                        720.0,
                        -120.0
                    ]
                },
                "state": {
                    "delay": "10"
                }
            },
            "filter_subclip_1": {
                "class": "filter.video.subclip.FilterVideoSubclip",
                "display": {
                    "position": [
                        480.0,
                        -240.0
                    ]
                },
                "state": {
                    "delay": "0",
                    "duration_max": "20"
                }
            },
            "filter_subclip_2": {
                "class": "filter.video.subclip.FilterVideoSubclip",
                "display": {
                    "position": [
                        480.0,
                        -120.0
                    ]
                },
                "state": {
                    "delay": "0",
                    "duration_max": "10"
                }
            },
            "filter_subclip_3": {
                "class": "filter.video.subclip.FilterVideoSubclip",
                "display": {
                    "position": [
                        240.0,
                        0.0
                    ]
                },
                "state": {
                    "delay": "0",
                    "duration_max": "20"
                }
            },
            "filter_video_equation_1": {
                "class": "filter.video.equation.FilterVideoEquation",
                "display": {
                    "position": [
                        240.0,
                        -240.0
                    ]
                },
                "state": {
                    "colors": [
                        "b0*(1 - t/20)",
                        "g0*t/20",
                        "r0*(1 - t/20)",
                        "0.200000000000000"
                    ]
                }
            },
            "filter_video_equation_2": {
                "class": "filter.video.equation.FilterVideoEquation",
                "display": {
                    "position": [
                        240.0,
                        -120.0
                    ]
                },
                "state": {
                    "colors": [
                        "b0*exp((1 - exp(4*(1 - t/10)))*(i**2 + j**2))",
                        "g0*exp((1 - exp(4*(1 - t/10)))*(i**2 + j**2))",
                        "r0*exp((1 - exp(4*(1 - t/10)))*(i**2 + j**2))",
                        "exp((1 - exp(4*(1 - t/10)))*(i**2 + j**2))"
                    ]
                }
            },
            "generator_video_equation_1": {
                "class": "generation.video.equation.GeneratorVideoEquation",
                "display": {
                    "position": [
                        0,
                        0.0
                    ]
                },
                "state": {
                    "colors": [
                        "0",
                        "(i/2 - (sin(pi*t) + 1)*cos(pi*(10*j - t/2))/4)**3",
                        "i/2 - (sin(pi*t) + 1)*cos(pi*(10*j - t/2))/4"
                    ]
                }
            },
            "generator_video_equation_2": {
                "class": "generation.video.equation.GeneratorVideoEquation",
                "display": {
                    "position": [
                        0.0,
                        -120.0
                    ]
                },
                "state": {
                    "colors": [
                        "(sin((-pi)*t + 50*sqrt(i**2) + 50*sqrt(j**2))/2 + 1/2)**4",
                        "0",
                        "(sin(pi*t + 50*sqrt(i**2 + j**2))/2 + 1/2)**4"
                    ]
                }
            },
            "generator_video_noise_1": {
                "class": "generation.video.noise.GeneratorVideoNoise",
                "display": {
                    "position": [
                        0.0,
                        -240.0
                    ]
                },
                "state": {
                    "seed": 0.0
                }
            }
        }
    },
    "project_files": []
}